…
## Data conversion into long_format

``` r
air_long <- airquality %>%
  select(date, Ozone, Temp, Wind) %>%
  pivot_longer(-date)
print(air_long)
```

    ## # A tibble: 333 × 3
    ##    date       name  value
    ##    <date>     <chr> <dbl>
    ##  1 1973-05-01 Ozone  41  
    ##  2 1973-05-01 Temp   67  
    ##  3 1973-05-01 Wind    7.4
    ##  4 1973-05-02 Ozone  36  
    ##  5 1973-05-02 Temp   72  
    ##  6 1973-05-02 Wind    8  
    ##  7 1973-05-03 Ozone  12  
    ##  8 1973-05-03 Temp   74  
    ##  9 1973-05-03 Wind   12.6
    ## 10 1973-05-04 Ozone  18  
    ## # ℹ 323 more rows
…
